^C:\USERS\840\SOURCE\REPOS\HOTSPOT\HOTSPOT\X64\RELEASE\HOTSPOT.OBJ|C:\USERS\840\SOURCE\REPOS\HOTSPOT\HOTSPOT\X64\RELEASE\MAIN.OBJ|C:\USERS\840\SOURCE\REPOS\HOTSPOT\HOTSPOT\X64\RELEASE\MESSAGEWINDOW.OBJ|C:\USERS\840\SOURCE\REPOS\HOTSPOT\HOTSPOT\X64\RELEASE\MOC_HOTSPOT.OBJ|C:\USERS\840\SOURCE\REPOS\HOTSPOT\HOTSPOT\X64\RELEASE\MOC_MESSAGEWINDOW.OBJ|C:\USERS\840\SOURCE\REPOS\HOTSPOT\HOTSPOT\X64\RELEASE\QRC_HOTSPOT.OBJ
C:\QT\QT5.12.1\5.12.1\MSVC2017_64\LIB\QT5WIDGETS.LIB
C:\QT\QT5.12.1\5.12.1\MSVC2017_64\LIB\QT5GUI.LIB
C:\QT\QT5.12.1\5.12.1\MSVC2017_64\LIB\QT5CORE.LIB
C:\QT\QT5.12.1\5.12.1\MSVC2017_64\LIB\QTMAIN.LIB
C:\PROGRAM FILES (X86)\WINDOWS KITS\10\LIB\10.0.17763.0\UM\X64\SHELL32.LIB
C:\PROGRAM FILES (X86)\WINDOWS KITS\10\LIB\10.0.17763.0\UM\X64\KERNEL32.LIB
C:\PROGRAM FILES (X86)\WINDOWS KITS\10\LIB\10.0.17763.0\UM\X64\USER32.LIB
C:\PROGRAM FILES (X86)\WINDOWS KITS\10\LIB\10.0.17763.0\UM\X64\GDI32.LIB
C:\PROGRAM FILES (X86)\WINDOWS KITS\10\LIB\10.0.17763.0\UM\X64\WINSPOOL.LIB
C:\PROGRAM FILES (X86)\WINDOWS KITS\10\LIB\10.0.17763.0\UM\X64\COMDLG32.LIB
C:\PROGRAM FILES (X86)\WINDOWS KITS\10\LIB\10.0.17763.0\UM\X64\ADVAPI32.LIB
C:\PROGRAM FILES (X86)\WINDOWS KITS\10\LIB\10.0.17763.0\UM\X64\OLE32.LIB
C:\PROGRAM FILES (X86)\WINDOWS KITS\10\LIB\10.0.17763.0\UM\X64\OLEAUT32.LIB
C:\PROGRAM FILES (X86)\WINDOWS KITS\10\LIB\10.0.17763.0\UM\X64\UUID.LIB
C:\PROGRAM FILES (X86)\WINDOWS KITS\10\LIB\10.0.17763.0\UM\X64\ODBC32.LIB
C:\PROGRAM FILES (X86)\WINDOWS KITS\10\LIB\10.0.17763.0\UM\X64\ODBCCP32.LIB
C:\USERS\840\SOURCE\REPOS\HOTSPOT\HOTSPOT\X64\RELEASE\HOTSPOT.OBJ
C:\USERS\840\SOURCE\REPOS\HOTSPOT\HOTSPOT\X64\RELEASE\MAIN.OBJ
C:\USERS\840\SOURCE\REPOS\HOTSPOT\HOTSPOT\X64\RELEASE\MESSAGEWINDOW.OBJ
C:\USERS\840\SOURCE\REPOS\HOTSPOT\HOTSPOT\X64\RELEASE\QRC_HOTSPOT.OBJ
C:\USERS\840\SOURCE\REPOS\HOTSPOT\HOTSPOT\X64\RELEASE\MOC_HOTSPOT.OBJ
C:\USERS\840\SOURCE\REPOS\HOTSPOT\HOTSPOT\X64\RELEASE\MOC_MESSAGEWINDOW.OBJ
C:\WINDOWS\GLOBALIZATION\SORTING\SORTDEFAULT.NLS
C:\PROGRAM FILES (X86)\MICROSOFT VISUAL STUDIO\2017\COMMUNITY\VC\TOOLS\MSVC\14.16.27023\LIB\X64\MSVCPRT.LIB
C:\PROGRAM FILES (X86)\MICROSOFT VISUAL STUDIO\2017\COMMUNITY\VC\TOOLS\MSVC\14.16.27023\LIB\X64\MSVCRT.LIB
C:\PROGRAM FILES (X86)\MICROSOFT VISUAL STUDIO\2017\COMMUNITY\VC\TOOLS\MSVC\14.16.27023\LIB\X64\OLDNAMES.LIB
C:\PROGRAM FILES (X86)\MICROSOFT VISUAL STUDIO\2017\COMMUNITY\VC\TOOLS\MSVC\14.16.27023\LIB\X64\VCRUNTIME.LIB
C:\PROGRAM FILES (X86)\WINDOWS KITS\10\LIB\10.0.17763.0\UCRT\X64\UCRT.LIB
C:\PROGRAM FILES (X86)\WINDOWS KITS\10\BIN\10.0.17763.0\X86\RC.EXE
C:\PROGRAM FILES (X86)\MICROSOFT VISUAL STUDIO\2017\COMMUNITY\VC\TOOLS\MSVC\14.16.27023\BIN\HOSTX86\X86\CVTRES.EXE
C:\WINDOWS\SYSTEM32\TZRES.DLL
