^C:\USERS\840\SOURCE\REPOS\HOTSPOT\HOTSPOT\HOTSPOT.CPP|C:\USERS\840\SOURCE\REPOS\HOTSPOT\HOTSPOT\MAIN.CPP|C:\USERS\840\SOURCE\REPOS\HOTSPOT\HOTSPOT\MAINWINDOW.CPP|C:\USERS\840\SOURCE\REPOS\HOTSPOT\HOTSPOT\X64\DEBUG\MOC\MOC_HOTSPOT.CPP|C:\USERS\840\SOURCE\REPOS\HOTSPOT\HOTSPOT\X64\DEBUG\MOC\MOC_MAINWINDOW.CPP|C:\USERS\840\SOURCE\REPOS\HOTSPOT\HOTSPOT\X64\DEBUG\RCC\QRC_HOTSPOT.CPP
C:\USERS\840\SOURCE\REPOS\HOTSPOT\HOTSPOT\X64\DEBUG\QRC_HOTSPOT.OBJ
^C:\USERS\840\SOURCE\REPOS\HOTSPOT\HOTSPOT\X64\DEBUG\RCC\QRC_HOTSPOT.CPP
C:\USERS\840\SOURCE\REPOS\HOTSPOT\HOTSPOT\X64\DEBUG\QRC_HOTSPOT.OBJ
^C:\USERS\840\SOURCE\REPOS\HOTSPOT\HOTSPOT\HOTSPOT.CPP|C:\USERS\840\SOURCE\REPOS\HOTSPOT\HOTSPOT\MAIN.CPP|C:\USERS\840\SOURCE\REPOS\HOTSPOT\HOTSPOT\MESSAGEWINDOW.CPP|C:\USERS\840\SOURCE\REPOS\HOTSPOT\HOTSPOT\X64\DEBUG\MOC\MOC_HOTSPOT.CPP|C:\USERS\840\SOURCE\REPOS\HOTSPOT\HOTSPOT\X64\DEBUG\MOC\MOC_MESSAGEWINDOW.CPP
C:\USERS\840\SOURCE\REPOS\HOTSPOT\HOTSPOT\X64\DEBUG\MOC_MESSAGEWINDOW.OBJ
C:\USERS\840\SOURCE\REPOS\HOTSPOT\HOTSPOT\X64\DEBUG\MESSAGEWINDOW.OBJ
C:\USERS\840\SOURCE\REPOS\HOTSPOT\HOTSPOT\X64\DEBUG\MAIN.OBJ
C:\USERS\840\SOURCE\REPOS\HOTSPOT\HOTSPOT\X64\DEBUG\MOC_HOTSPOT.OBJ
^C:\USERS\840\SOURCE\REPOS\HOTSPOT\HOTSPOT\MESSAGEWINDOW.CPP
C:\USERS\840\SOURCE\REPOS\HOTSPOT\HOTSPOT\X64\DEBUG\MESSAGEWINDOW.OBJ
^C:\USERS\840\SOURCE\REPOS\HOTSPOT\HOTSPOT\X64\DEBUG\MOC\MOC_MESSAGEWINDOW.CPP
C:\USERS\840\SOURCE\REPOS\HOTSPOT\HOTSPOT\X64\DEBUG\MOC_MESSAGEWINDOW.OBJ
^C:\USERS\840\SOURCE\REPOS\HOTSPOT\HOTSPOT\HOTSPOT.CPP|C:\USERS\840\SOURCE\REPOS\HOTSPOT\HOTSPOT\MAIN.CPP|C:\USERS\840\SOURCE\REPOS\HOTSPOT\HOTSPOT\X64\DEBUG\MOC\MOC_HOTSPOT.CPP
C:\USERS\840\SOURCE\REPOS\HOTSPOT\HOTSPOT\X64\DEBUG\MAIN.OBJ
C:\USERS\840\SOURCE\REPOS\HOTSPOT\HOTSPOT\X64\DEBUG\MOC_HOTSPOT.OBJ
C:\USERS\840\SOURCE\REPOS\HOTSPOT\HOTSPOT\X64\DEBUG\HOTSPOT.OBJ
^C:\USERS\840\SOURCE\REPOS\HOTSPOT\HOTSPOT\MAIN.CPP
C:\USERS\840\SOURCE\REPOS\HOTSPOT\HOTSPOT\X64\DEBUG\VC141.PDB
^C:\USERS\840\SOURCE\REPOS\HOTSPOT\HOTSPOT\X64\DEBUG\MOC\MOC_HOTSPOT.CPP
C:\USERS\840\SOURCE\REPOS\HOTSPOT\HOTSPOT\X64\DEBUG\VC141.PDB
^C:\USERS\840\SOURCE\REPOS\HOTSPOT\HOTSPOT\HOTSPOT.CPP
C:\USERS\840\SOURCE\REPOS\HOTSPOT\HOTSPOT\X64\DEBUG\VC141.PDB
C:\USERS\840\SOURCE\REPOS\HOTSPOT\HOTSPOT\X64\DEBUG\HOTSPOT.OBJ
