^C:\USERS\840\SOURCE\REPOS\TSDECODERGUI\TSDECODERGUI\X64\RELEASE\RCC\QRC_TSDECODERGUI.CPP
/c /IX64\RELEASE\MOC /IX64\RELEASE\UIC /I..\RESOURCES /IC:\QT\QT5.12.1\5.12.1\MSVC2017_64\INCLUDE /IC:\QT\QT5.12.1\5.12.1\MSVC2017_64\INCLUDE\QTGUI /IC:\QT\QT5.12.1\5.12.1\MSVC2017_64\INCLUDE\QTCORE /IC:\QT\QT5.12.1\5.12.1\MSVC2017_64\INCLUDE\QTANGLE /IC:\QT\QT5.12.1\5.12.1\MSVC2017_64\INCLUDE\QTWIDGETS /I. /IC:\QT\QT5.12.1\5.12.1\MSVC2017_64\INCLUDE /IC:\QT\QT5.12.1\5.12.1\MSVC2017_64\INCLUDE\QTWIDGETS /IC:\QT\QT5.12.1\5.12.1\MSVC2017_64\INCLUDE\QTGUI /IC:\QT\QT5.12.1\5.12.1\MSVC2017_64\INCLUDE\QTANGLE /IC:\QT\QT5.12.1\5.12.1\MSVC2017_64\INCLUDE\QTCORE /IC:\VULKANSDK\1.0.51.0\INCLUDE /I"C:\QT\QT5.12.1\5.12.1\MSVC2017_64\MKSPECS\WIN32-MSVC" /IX64\RELEASE\MOC /IX64\RELEASE\UIC /nologo /W1 /WX- /diagnostics:classic /O2 /D UNICODE /D _UNICODE /D WIN32 /D _ENABLE_EXTENDED_ALIGNED_STORAGE /D WIN64 /D QT_NO_DEBUG /D QT_WIDGETS_LIB /D QT_GUI_LIB /D QT_CORE_LIB /D NDEBUG /Gm- /EHsc /MD /GS /fp:precise /Zc:wchar_t /Zc:forScope /Zc:inline /Fp"X64\RELEASE\TSDECODERGUI.PCH" /Fo"X64\RELEASE\\" /Fd"X64\RELEASE\VC141.PDB" /Gd /TP /FC C:\USERS\840\SOURCE\REPOS\TSDECODERGUI\TSDECODERGUI\X64\RELEASE\RCC\QRC_TSDECODERGUI.CPP
^C:\USERS\840\SOURCE\REPOS\TSDECODERGUI\TSDECODERGUI\STDAFX.CPP
/c /IX64\RELEASE\MOC /IX64\RELEASE\UIC /I..\RESOURCES /IC:\QT\QT5.12.1\5.12.1\MSVC2017_64\INCLUDE /IC:\QT\QT5.12.1\5.12.1\MSVC2017_64\INCLUDE\QTGUI /IC:\QT\QT5.12.1\5.12.1\MSVC2017_64\INCLUDE\QTCORE /IC:\QT\QT5.12.1\5.12.1\MSVC2017_64\INCLUDE\QTANGLE /IC:\QT\QT5.12.1\5.12.1\MSVC2017_64\INCLUDE\QTWIDGETS /I. /IC:\QT\QT5.12.1\5.12.1\MSVC2017_64\INCLUDE /IC:\QT\QT5.12.1\5.12.1\MSVC2017_64\INCLUDE\QTWIDGETS /IC:\QT\QT5.12.1\5.12.1\MSVC2017_64\INCLUDE\QTGUI /IC:\QT\QT5.12.1\5.12.1\MSVC2017_64\INCLUDE\QTANGLE /IC:\QT\QT5.12.1\5.12.1\MSVC2017_64\INCLUDE\QTCORE /IC:\VULKANSDK\1.0.51.0\INCLUDE /I"C:\QT\QT5.12.1\5.12.1\MSVC2017_64\MKSPECS\WIN32-MSVC" /IX64\RELEASE\MOC /IX64\RELEASE\UIC /nologo /W1 /WX- /diagnostics:classic /O2 /D UNICODE /D _UNICODE /D WIN32 /D _ENABLE_EXTENDED_ALIGNED_STORAGE /D WIN64 /D QT_NO_DEBUG /D QT_WIDGETS_LIB /D QT_GUI_LIB /D QT_CORE_LIB /D NDEBUG /Gm- /EHsc /MD /GS /fp:precise /Zc:wchar_t /Zc:forScope /Zc:inline /Yc"stdafx.h" /Fp"X64\RELEASE\TSDECODERGUI.PCH" /Fo"X64\RELEASE\\" /Fd"X64\RELEASE\VC141.PDB" /Gd /TP /FC C:\USERS\840\SOURCE\REPOS\TSDECODERGUI\TSDECODERGUI\STDAFX.CPP
^C:\USERS\840\SOURCE\REPOS\TSDECODERGUI\TSDECODERGUI\RATIOCHECK.CPP
/c /IX64\RELEASE\MOC /IX64\RELEASE\UIC /I..\RESOURCES /IC:\QT\QT5.12.1\5.12.1\MSVC2017_64\INCLUDE /IC:\QT\QT5.12.1\5.12.1\MSVC2017_64\INCLUDE\QTGUI /IC:\QT\QT5.12.1\5.12.1\MSVC2017_64\INCLUDE\QTCORE /IC:\QT\QT5.12.1\5.12.1\MSVC2017_64\INCLUDE\QTANGLE /IC:\QT\QT5.12.1\5.12.1\MSVC2017_64\INCLUDE\QTWIDGETS /I. /IC:\QT\QT5.12.1\5.12.1\MSVC2017_64\INCLUDE /IC:\QT\QT5.12.1\5.12.1\MSVC2017_64\INCLUDE\QTWIDGETS /IC:\QT\QT5.12.1\5.12.1\MSVC2017_64\INCLUDE\QTGUI /IC:\QT\QT5.12.1\5.12.1\MSVC2017_64\INCLUDE\QTANGLE /IC:\QT\QT5.12.1\5.12.1\MSVC2017_64\INCLUDE\QTCORE /IC:\VULKANSDK\1.0.51.0\INCLUDE /I"C:\QT\QT5.12.1\5.12.1\MSVC2017_64\MKSPECS\WIN32-MSVC" /IX64\RELEASE\MOC /IX64\RELEASE\UIC /nologo /W1 /WX- /diagnostics:classic /O2 /D UNICODE /D _UNICODE /D WIN32 /D _ENABLE_EXTENDED_ALIGNED_STORAGE /D WIN64 /D QT_NO_DEBUG /D QT_WIDGETS_LIB /D QT_GUI_LIB /D QT_CORE_LIB /D NDEBUG /Gm- /EHsc /MD /GS /fp:precise /Zc:wchar_t /Zc:forScope /Zc:inline /Yu"stdafx.h" /Fp"X64\RELEASE\TSDECODERGUI.PCH" /Fo"X64\RELEASE\\" /Fd"X64\RELEASE\VC141.PDB" /Gd /TP /FC C:\USERS\840\SOURCE\REPOS\TSDECODERGUI\TSDECODERGUI\RATIOCHECK.CPP
^C:\USERS\840\SOURCE\REPOS\TSDECODERGUI\TSDECODERGUI\UTILS.CPP
/c /IX64\RELEASE\MOC /IX64\RELEASE\UIC /I..\RESOURCES /IC:\QT\QT5.12.1\5.12.1\MSVC2017_64\INCLUDE /IC:\QT\QT5.12.1\5.12.1\MSVC2017_64\INCLUDE\QTGUI /IC:\QT\QT5.12.1\5.12.1\MSVC2017_64\INCLUDE\QTCORE /IC:\QT\QT5.12.1\5.12.1\MSVC2017_64\INCLUDE\QTANGLE /IC:\QT\QT5.12.1\5.12.1\MSVC2017_64\INCLUDE\QTWIDGETS /I. /IC:\QT\QT5.12.1\5.12.1\MSVC2017_64\INCLUDE /IC:\QT\QT5.12.1\5.12.1\MSVC2017_64\INCLUDE\QTWIDGETS /IC:\QT\QT5.12.1\5.12.1\MSVC2017_64\INCLUDE\QTGUI /IC:\QT\QT5.12.1\5.12.1\MSVC2017_64\INCLUDE\QTANGLE /IC:\QT\QT5.12.1\5.12.1\MSVC2017_64\INCLUDE\QTCORE /IC:\VULKANSDK\1.0.51.0\INCLUDE /I"C:\QT\QT5.12.1\5.12.1\MSVC2017_64\MKSPECS\WIN32-MSVC" /IX64\RELEASE\MOC /IX64\RELEASE\UIC /nologo /W1 /WX- /diagnostics:classic /O2 /D UNICODE /D _UNICODE /D WIN32 /D _ENABLE_EXTENDED_ALIGNED_STORAGE /D WIN64 /D QT_NO_DEBUG /D QT_WIDGETS_LIB /D QT_GUI_LIB /D QT_CORE_LIB /D NDEBUG /Gm- /EHsc /MD /GS /fp:precise /Zc:wchar_t /Zc:forScope /Zc:inline /Yu"stdafx.h" /Fp"X64\RELEASE\TSDECODERGUI.PCH" /Fo"X64\RELEASE\\" /Fd"X64\RELEASE\VC141.PDB" /Gd /TP /FC C:\USERS\840\SOURCE\REPOS\TSDECODERGUI\TSDECODERGUI\UTILS.CPP
^C:\USERS\840\SOURCE\REPOS\TSDECODERGUI\TSDECODERGUI\X64\RELEASE\MOC\MOC_CORNERIMGLABEL.CPP
/c /IX64\RELEASE\MOC /IX64\RELEASE\UIC /I..\RESOURCES /IC:\QT\QT5.12.1\5.12.1\MSVC2017_64\INCLUDE /IC:\QT\QT5.12.1\5.12.1\MSVC2017_64\INCLUDE\QTGUI /IC:\QT\QT5.12.1\5.12.1\MSVC2017_64\INCLUDE\QTCORE /IC:\QT\QT5.12.1\5.12.1\MSVC2017_64\INCLUDE\QTANGLE /IC:\QT\QT5.12.1\5.12.1\MSVC2017_64\INCLUDE\QTWIDGETS /I. /IC:\QT\QT5.12.1\5.12.1\MSVC2017_64\INCLUDE /IC:\QT\QT5.12.1\5.12.1\MSVC2017_64\INCLUDE\QTWIDGETS /IC:\QT\QT5.12.1\5.12.1\MSVC2017_64\INCLUDE\QTGUI /IC:\QT\QT5.12.1\5.12.1\MSVC2017_64\INCLUDE\QTANGLE /IC:\QT\QT5.12.1\5.12.1\MSVC2017_64\INCLUDE\QTCORE /IC:\VULKANSDK\1.0.51.0\INCLUDE /I"C:\QT\QT5.12.1\5.12.1\MSVC2017_64\MKSPECS\WIN32-MSVC" /IX64\RELEASE\MOC /IX64\RELEASE\UIC /nologo /W1 /WX- /diagnostics:classic /O2 /D UNICODE /D _UNICODE /D WIN32 /D _ENABLE_EXTENDED_ALIGNED_STORAGE /D WIN64 /D QT_NO_DEBUG /D QT_WIDGETS_LIB /D QT_GUI_LIB /D QT_CORE_LIB /D NDEBUG /Gm- /EHsc /MD /GS /fp:precise /Zc:wchar_t /Zc:forScope /Zc:inline /Yu"stdafx.h" /Fp"X64\RELEASE\TSDECODERGUI.PCH" /Fo"X64\RELEASE\\" /Fd"X64\RELEASE\VC141.PDB" /Gd /TP /FC C:\USERS\840\SOURCE\REPOS\TSDECODERGUI\TSDECODERGUI\X64\RELEASE\MOC\MOC_CORNERIMGLABEL.CPP
^C:\USERS\840\SOURCE\REPOS\TSDECODERGUI\TSDECODERGUI\X64\RELEASE\MOC\MOC_RATIOCHECK.CPP
/c /IX64\RELEASE\MOC /IX64\RELEASE\UIC /I..\RESOURCES /IC:\QT\QT5.12.1\5.12.1\MSVC2017_64\INCLUDE /IC:\QT\QT5.12.1\5.12.1\MSVC2017_64\INCLUDE\QTGUI /IC:\QT\QT5.12.1\5.12.1\MSVC2017_64\INCLUDE\QTCORE /IC:\QT\QT5.12.1\5.12.1\MSVC2017_64\INCLUDE\QTANGLE /IC:\QT\QT5.12.1\5.12.1\MSVC2017_64\INCLUDE\QTWIDGETS /I. /IC:\QT\QT5.12.1\5.12.1\MSVC2017_64\INCLUDE /IC:\QT\QT5.12.1\5.12.1\MSVC2017_64\INCLUDE\QTWIDGETS /IC:\QT\QT5.12.1\5.12.1\MSVC2017_64\INCLUDE\QTGUI /IC:\QT\QT5.12.1\5.12.1\MSVC2017_64\INCLUDE\QTANGLE /IC:\QT\QT5.12.1\5.12.1\MSVC2017_64\INCLUDE\QTCORE /IC:\VULKANSDK\1.0.51.0\INCLUDE /I"C:\QT\QT5.12.1\5.12.1\MSVC2017_64\MKSPECS\WIN32-MSVC" /IX64\RELEASE\MOC /IX64\RELEASE\UIC /nologo /W1 /WX- /diagnostics:classic /O2 /D UNICODE /D _UNICODE /D WIN32 /D _ENABLE_EXTENDED_ALIGNED_STORAGE /D WIN64 /D QT_NO_DEBUG /D QT_WIDGETS_LIB /D QT_GUI_LIB /D QT_CORE_LIB /D NDEBUG /Gm- /EHsc /MD /GS /fp:precise /Zc:wchar_t /Zc:forScope /Zc:inline /Yu"stdafx.h" /Fp"X64\RELEASE\TSDECODERGUI.PCH" /Fo"X64\RELEASE\\" /Fd"X64\RELEASE\VC141.PDB" /Gd /TP /FC C:\USERS\840\SOURCE\REPOS\TSDECODERGUI\TSDECODERGUI\X64\RELEASE\MOC\MOC_RATIOCHECK.CPP
^C:\USERS\840\SOURCE\REPOS\TSDECODERGUI\TSDECODERGUI\CORNERIMGLABEL.CPP
/c /IX64\RELEASE\MOC /IX64\RELEASE\UIC /I..\RESOURCES /IC:\QT\QT5.12.1\5.12.1\MSVC2017_64\INCLUDE /IC:\QT\QT5.12.1\5.12.1\MSVC2017_64\INCLUDE\QTGUI /IC:\QT\QT5.12.1\5.12.1\MSVC2017_64\INCLUDE\QTCORE /IC:\QT\QT5.12.1\5.12.1\MSVC2017_64\INCLUDE\QTANGLE /IC:\QT\QT5.12.1\5.12.1\MSVC2017_64\INCLUDE\QTWIDGETS /I. /IC:\QT\QT5.12.1\5.12.1\MSVC2017_64\INCLUDE /IC:\QT\QT5.12.1\5.12.1\MSVC2017_64\INCLUDE\QTWIDGETS /IC:\QT\QT5.12.1\5.12.1\MSVC2017_64\INCLUDE\QTGUI /IC:\QT\QT5.12.1\5.12.1\MSVC2017_64\INCLUDE\QTANGLE /IC:\QT\QT5.12.1\5.12.1\MSVC2017_64\INCLUDE\QTCORE /IC:\VULKANSDK\1.0.51.0\INCLUDE /I"C:\QT\QT5.12.1\5.12.1\MSVC2017_64\MKSPECS\WIN32-MSVC" /IX64\RELEASE\MOC /IX64\RELEASE\UIC /nologo /W1 /WX- /diagnostics:classic /O2 /D UNICODE /D _UNICODE /D WIN32 /D _ENABLE_EXTENDED_ALIGNED_STORAGE /D WIN64 /D QT_NO_DEBUG /D QT_WIDGETS_LIB /D QT_GUI_LIB /D QT_CORE_LIB /D NDEBUG /Gm- /EHsc /MD /GS /fp:precise /Zc:wchar_t /Zc:forScope /Zc:inline /Yu"stdafx.h" /Fp"X64\RELEASE\TSDECODERGUI.PCH" /Fo"X64\RELEASE\\" /Fd"X64\RELEASE\VC141.PDB" /Gd /TP /FC C:\USERS\840\SOURCE\REPOS\TSDECODERGUI\TSDECODERGUI\CORNERIMGLABEL.CPP
^C:\USERS\840\SOURCE\REPOS\TSDECODERGUI\TSDECODERGUI\TSDECODERGUI.CPP
/c /IX64\RELEASE\MOC /IX64\RELEASE\UIC /I..\RESOURCES /IC:\QT\QT5.12.1\5.12.1\MSVC2017_64\INCLUDE /IC:\QT\QT5.12.1\5.12.1\MSVC2017_64\INCLUDE\QTGUI /IC:\QT\QT5.12.1\5.12.1\MSVC2017_64\INCLUDE\QTCORE /IC:\QT\QT5.12.1\5.12.1\MSVC2017_64\INCLUDE\QTANGLE /IC:\QT\QT5.12.1\5.12.1\MSVC2017_64\INCLUDE\QTWIDGETS /I. /IC:\QT\QT5.12.1\5.12.1\MSVC2017_64\INCLUDE /IC:\QT\QT5.12.1\5.12.1\MSVC2017_64\INCLUDE\QTWIDGETS /IC:\QT\QT5.12.1\5.12.1\MSVC2017_64\INCLUDE\QTGUI /IC:\QT\QT5.12.1\5.12.1\MSVC2017_64\INCLUDE\QTANGLE /IC:\QT\QT5.12.1\5.12.1\MSVC2017_64\INCLUDE\QTCORE /IC:\VULKANSDK\1.0.51.0\INCLUDE /I"C:\QT\QT5.12.1\5.12.1\MSVC2017_64\MKSPECS\WIN32-MSVC" /IX64\RELEASE\MOC /IX64\RELEASE\UIC /nologo /W1 /WX- /diagnostics:classic /O2 /D UNICODE /D _UNICODE /D WIN32 /D _ENABLE_EXTENDED_ALIGNED_STORAGE /D WIN64 /D QT_NO_DEBUG /D QT_WIDGETS_LIB /D QT_GUI_LIB /D QT_CORE_LIB /D NDEBUG /Gm- /EHsc /MD /GS /fp:precise /Zc:wchar_t /Zc:forScope /Zc:inline /Yu"stdafx.h" /Fp"X64\RELEASE\TSDECODERGUI.PCH" /Fo"X64\RELEASE\\" /Fd"X64\RELEASE\VC141.PDB" /Gd /TP /FC C:\USERS\840\SOURCE\REPOS\TSDECODERGUI\TSDECODERGUI\TSDECODERGUI.CPP
^C:\USERS\840\SOURCE\REPOS\TSDECODERGUI\TSDECODERGUI\MAIN.CPP
/c /IX64\RELEASE\MOC /IX64\RELEASE\UIC /I..\RESOURCES /IC:\QT\QT5.12.1\5.12.1\MSVC2017_64\INCLUDE /IC:\QT\QT5.12.1\5.12.1\MSVC2017_64\INCLUDE\QTGUI /IC:\QT\QT5.12.1\5.12.1\MSVC2017_64\INCLUDE\QTCORE /IC:\QT\QT5.12.1\5.12.1\MSVC2017_64\INCLUDE\QTANGLE /IC:\QT\QT5.12.1\5.12.1\MSVC2017_64\INCLUDE\QTWIDGETS /I. /IC:\QT\QT5.12.1\5.12.1\MSVC2017_64\INCLUDE /IC:\QT\QT5.12.1\5.12.1\MSVC2017_64\INCLUDE\QTWIDGETS /IC:\QT\QT5.12.1\5.12.1\MSVC2017_64\INCLUDE\QTGUI /IC:\QT\QT5.12.1\5.12.1\MSVC2017_64\INCLUDE\QTANGLE /IC:\QT\QT5.12.1\5.12.1\MSVC2017_64\INCLUDE\QTCORE /IC:\VULKANSDK\1.0.51.0\INCLUDE /I"C:\QT\QT5.12.1\5.12.1\MSVC2017_64\MKSPECS\WIN32-MSVC" /IX64\RELEASE\MOC /IX64\RELEASE\UIC /nologo /W1 /WX- /diagnostics:classic /O2 /D UNICODE /D _UNICODE /D WIN32 /D _ENABLE_EXTENDED_ALIGNED_STORAGE /D WIN64 /D QT_NO_DEBUG /D QT_WIDGETS_LIB /D QT_GUI_LIB /D QT_CORE_LIB /D NDEBUG /Gm- /EHsc /MD /GS /fp:precise /Zc:wchar_t /Zc:forScope /Zc:inline /Yu"stdafx.h" /Fp"X64\RELEASE\TSDECODERGUI.PCH" /Fo"X64\RELEASE\\" /Fd"X64\RELEASE\VC141.PDB" /Gd /TP /FC C:\USERS\840\SOURCE\REPOS\TSDECODERGUI\TSDECODERGUI\MAIN.CPP
^C:\USERS\840\SOURCE\REPOS\TSDECODERGUI\TSDECODERGUI\X64\RELEASE\MOC\MOC_TSDECODERGUI.CPP
/c /IX64\RELEASE\MOC /IX64\RELEASE\UIC /I..\RESOURCES /IC:\QT\QT5.12.1\5.12.1\MSVC2017_64\INCLUDE /IC:\QT\QT5.12.1\5.12.1\MSVC2017_64\INCLUDE\QTGUI /IC:\QT\QT5.12.1\5.12.1\MSVC2017_64\INCLUDE\QTCORE /IC:\QT\QT5.12.1\5.12.1\MSVC2017_64\INCLUDE\QTANGLE /IC:\QT\QT5.12.1\5.12.1\MSVC2017_64\INCLUDE\QTWIDGETS /I. /IC:\QT\QT5.12.1\5.12.1\MSVC2017_64\INCLUDE /IC:\QT\QT5.12.1\5.12.1\MSVC2017_64\INCLUDE\QTWIDGETS /IC:\QT\QT5.12.1\5.12.1\MSVC2017_64\INCLUDE\QTGUI /IC:\QT\QT5.12.1\5.12.1\MSVC2017_64\INCLUDE\QTANGLE /IC:\QT\QT5.12.1\5.12.1\MSVC2017_64\INCLUDE\QTCORE /IC:\VULKANSDK\1.0.51.0\INCLUDE /I"C:\QT\QT5.12.1\5.12.1\MSVC2017_64\MKSPECS\WIN32-MSVC" /IX64\RELEASE\MOC /IX64\RELEASE\UIC /nologo /W1 /WX- /diagnostics:classic /O2 /D UNICODE /D _UNICODE /D WIN32 /D _ENABLE_EXTENDED_ALIGNED_STORAGE /D WIN64 /D QT_NO_DEBUG /D QT_WIDGETS_LIB /D QT_GUI_LIB /D QT_CORE_LIB /D NDEBUG /Gm- /EHsc /MD /GS /fp:precise /Zc:wchar_t /Zc:forScope /Zc:inline /Yu"stdafx.h" /Fp"X64\RELEASE\TSDECODERGUI.PCH" /Fo"X64\RELEASE\\" /Fd"X64\RELEASE\VC141.PDB" /Gd /TP /FC C:\USERS\840\SOURCE\REPOS\TSDECODERGUI\TSDECODERGUI\X64\RELEASE\MOC\MOC_TSDECODERGUI.CPP
