^C:\USERS\840\SOURCE\REPOS\TSDECODERGUI\TSDECODERGUI\X64\RELEASE\RCC\QRC_TSDECODERGUI.CPP
C:\USERS\840\SOURCE\REPOS\TSDECODERGUI\TSDECODERGUI\X64\RELEASE\QRC_TSDECODERGUI.OBJ
^C:\USERS\840\SOURCE\REPOS\TSDECODERGUI\TSDECODERGUI\TSDECODERGUI.CPP|C:\USERS\840\SOURCE\REPOS\TSDECODERGUI\TSDECODERGUI\UTILS.CPP
C:\USERS\840\SOURCE\REPOS\TSDECODERGUI\TSDECODERGUI\X64\RELEASE\TSDECODERGUI.OBJ
^C:\USERS\840\SOURCE\REPOS\TSDECODERGUI\TSDECODERGUI\STDAFX.CPP
C:\USERS\840\SOURCE\REPOS\TSDECODERGUI\TSDECODERGUI\X64\RELEASE\TSDECODERGUI.PCH
C:\USERS\840\SOURCE\REPOS\TSDECODERGUI\TSDECODERGUI\X64\RELEASE\STDAFX.OBJ
^C:\USERS\840\SOURCE\REPOS\TSDECODERGUI\TSDECODERGUI\CORNERIMGLABEL.CPP|C:\USERS\840\SOURCE\REPOS\TSDECODERGUI\TSDECODERGUI\MAIN.CPP|C:\USERS\840\SOURCE\REPOS\TSDECODERGUI\TSDECODERGUI\RATIOCHECK.CPP|C:\USERS\840\SOURCE\REPOS\TSDECODERGUI\TSDECODERGUI\TSDECODERGUI.CPP|C:\USERS\840\SOURCE\REPOS\TSDECODERGUI\TSDECODERGUI\UTILS.CPP|C:\USERS\840\SOURCE\REPOS\TSDECODERGUI\TSDECODERGUI\X64\RELEASE\MOC\MOC_CORNERIMGLABEL.CPP|C:\USERS\840\SOURCE\REPOS\TSDECODERGUI\TSDECODERGUI\X64\RELEASE\MOC\MOC_RATIOCHECK.CPP|C:\USERS\840\SOURCE\REPOS\TSDECODERGUI\TSDECODERGUI\X64\RELEASE\MOC\MOC_TSDECODERGUI.CPP
C:\USERS\840\SOURCE\REPOS\TSDECODERGUI\TSDECODERGUI\X64\RELEASE\RATIOCHECK.OBJ
C:\USERS\840\SOURCE\REPOS\TSDECODERGUI\TSDECODERGUI\X64\RELEASE\MOC_RATIOCHECK.OBJ
C:\USERS\840\SOURCE\REPOS\TSDECODERGUI\TSDECODERGUI\X64\RELEASE\CORNERIMGLABEL.OBJ
C:\USERS\840\SOURCE\REPOS\TSDECODERGUI\TSDECODERGUI\X64\RELEASE\MOC_TSDECODERGUI.OBJ
C:\USERS\840\SOURCE\REPOS\TSDECODERGUI\TSDECODERGUI\X64\RELEASE\MAIN.OBJ
C:\USERS\840\SOURCE\REPOS\TSDECODERGUI\TSDECODERGUI\X64\RELEASE\TSDECODERGUI.OBJ
C:\USERS\840\SOURCE\REPOS\TSDECODERGUI\TSDECODERGUI\X64\RELEASE\MOC_CORNERIMGLABEL.OBJ
C:\USERS\840\SOURCE\REPOS\TSDECODERGUI\TSDECODERGUI\X64\RELEASE\UTILS.OBJ
^C:\USERS\840\SOURCE\REPOS\TSDECODERGUI\TSDECODERGUI\MAIN.CPP|C:\USERS\840\SOURCE\REPOS\TSDECODERGUI\TSDECODERGUI\TSDECODERGUI.CPP|C:\USERS\840\SOURCE\REPOS\TSDECODERGUI\TSDECODERGUI\X64\RELEASE\MOC\MOC_TSDECODERGUI.CPP
C:\USERS\840\SOURCE\REPOS\TSDECODERGUI\TSDECODERGUI\X64\RELEASE\TSDECODERGUI.OBJ
C:\USERS\840\SOURCE\REPOS\TSDECODERGUI\TSDECODERGUI\X64\RELEASE\MOC_TSDECODERGUI.OBJ
C:\USERS\840\SOURCE\REPOS\TSDECODERGUI\TSDECODERGUI\X64\RELEASE\MAIN.OBJ
^C:\USERS\840\SOURCE\REPOS\TSDECODERGUI\TSDECODERGUI\CORNERIMGLABEL.CPP|C:\USERS\840\SOURCE\REPOS\TSDECODERGUI\TSDECODERGUI\MAIN.CPP|C:\USERS\840\SOURCE\REPOS\TSDECODERGUI\TSDECODERGUI\TSDECODERGUI.CPP|C:\USERS\840\SOURCE\REPOS\TSDECODERGUI\TSDECODERGUI\X64\RELEASE\MOC\MOC_TSDECODERGUI.CPP
C:\USERS\840\SOURCE\REPOS\TSDECODERGUI\TSDECODERGUI\X64\RELEASE\CORNERIMGLABEL.OBJ
C:\USERS\840\SOURCE\REPOS\TSDECODERGUI\TSDECODERGUI\X64\RELEASE\MAIN.OBJ
C:\USERS\840\SOURCE\REPOS\TSDECODERGUI\TSDECODERGUI\X64\RELEASE\TSDECODERGUI.OBJ
C:\USERS\840\SOURCE\REPOS\TSDECODERGUI\TSDECODERGUI\X64\RELEASE\MOC_TSDECODERGUI.OBJ
