^C:\USERS\840\DESKTOP\TOOL\TIFF-4.0.10\LIBTIFF\TIFFXX.DIR\DEBUG\TIF_STREAM.OBJ
C:\USERS\840\DESKTOP\TOOL\TIFF-4.0.10\LIBTIFF\DEBUG\TIFFXXD.ILK
C:\USERS\840\DESKTOP\TOOL\TIFF-4.0.10\LIBTIFF\DEBUG\TIFFXXD.DLL
C:\USERS\840\DESKTOP\TOOL\TIFF-4.0.10\LIBTIFF\DEBUG\TIFFXXD.PDB
