^CornerImgLabel.h
C:\Users\840\source\repos\TSDecoderGUI\TSDecoderGUI\x64\Debug\moc\moc_CornerImgLabel.cpp
^LabelToolGUI.ui
C:\Users\840\source\repos\TSDecoderGUI\TSDecoderGUI\x64\Debug\uic\ui_LabelToolGUI.h
^TSDecoderGUI.qrc
C:\Users\840\source\repos\TSDecoderGUI\TSDecoderGUI\x64\Debug\rcc\qrc_TSDecoderGUI.cpp
^LabelToolGUI.h
C:\Users\840\source\repos\TSDecoderGUI\TSDecoderGUI\x64\Debug\moc\moc_LabelToolGUI.cpp
