^C:\USERS\840\DESKTOP\TOOL\TIFF-4.0.10\LIBTIFF\TIF_AUX.C
/c /I"C:\USERS\840\DESKTOP\TOOL\TIFF-4.0.10\LIBTIFF" /IC:\USERS\840\ANACONDA3\LIBRARY\INCLUDE /nologo /W3 /WX- /diagnostics:classic /O2 /Ob2 /D WIN32 /D _WINDOWS /D NDEBUG /D "CMAKE_INTDIR=\"Release\"" /D tiff_EXPORTS /D _WINDLL /D _MBCS /Gm- /MD /GS /fp:precise /Zc:wchar_t /Zc:forScope /Zc:inline /Fo"TIFF.DIR\RELEASE\\" /Fd"TIFF.DIR\RELEASE\VC141.PDB" /Gd /TC /FC C:\USERS\840\DESKTOP\TOOL\TIFF-4.0.10\LIBTIFF\TIF_AUX.C
^C:\USERS\840\DESKTOP\TOOL\TIFF-4.0.10\LIBTIFF\TIF_CLOSE.C
/c /I"C:\USERS\840\DESKTOP\TOOL\TIFF-4.0.10\LIBTIFF" /IC:\USERS\840\ANACONDA3\LIBRARY\INCLUDE /nologo /W3 /WX- /diagnostics:classic /O2 /Ob2 /D WIN32 /D _WINDOWS /D NDEBUG /D "CMAKE_INTDIR=\"Release\"" /D tiff_EXPORTS /D _WINDLL /D _MBCS /Gm- /MD /GS /fp:precise /Zc:wchar_t /Zc:forScope /Zc:inline /Fo"TIFF.DIR\RELEASE\\" /Fd"TIFF.DIR\RELEASE\VC141.PDB" /Gd /TC /FC C:\USERS\840\DESKTOP\TOOL\TIFF-4.0.10\LIBTIFF\TIF_CLOSE.C
^C:\USERS\840\DESKTOP\TOOL\TIFF-4.0.10\LIBTIFF\TIF_CODEC.C
/c /I"C:\USERS\840\DESKTOP\TOOL\TIFF-4.0.10\LIBTIFF" /IC:\USERS\840\ANACONDA3\LIBRARY\INCLUDE /nologo /W3 /WX- /diagnostics:classic /O2 /Ob2 /D WIN32 /D _WINDOWS /D NDEBUG /D "CMAKE_INTDIR=\"Release\"" /D tiff_EXPORTS /D _WINDLL /D _MBCS /Gm- /MD /GS /fp:precise /Zc:wchar_t /Zc:forScope /Zc:inline /Fo"TIFF.DIR\RELEASE\\" /Fd"TIFF.DIR\RELEASE\VC141.PDB" /Gd /TC /FC C:\USERS\840\DESKTOP\TOOL\TIFF-4.0.10\LIBTIFF\TIF_CODEC.C
^C:\USERS\840\DESKTOP\TOOL\TIFF-4.0.10\LIBTIFF\TIF_COLOR.C
/c /I"C:\USERS\840\DESKTOP\TOOL\TIFF-4.0.10\LIBTIFF" /IC:\USERS\840\ANACONDA3\LIBRARY\INCLUDE /nologo /W3 /WX- /diagnostics:classic /O2 /Ob2 /D WIN32 /D _WINDOWS /D NDEBUG /D "CMAKE_INTDIR=\"Release\"" /D tiff_EXPORTS /D _WINDLL /D _MBCS /Gm- /MD /GS /fp:precise /Zc:wchar_t /Zc:forScope /Zc:inline /Fo"TIFF.DIR\RELEASE\\" /Fd"TIFF.DIR\RELEASE\VC141.PDB" /Gd /TC /FC C:\USERS\840\DESKTOP\TOOL\TIFF-4.0.10\LIBTIFF\TIF_COLOR.C
^C:\USERS\840\DESKTOP\TOOL\TIFF-4.0.10\LIBTIFF\TIF_COMPRESS.C
/c /I"C:\USERS\840\DESKTOP\TOOL\TIFF-4.0.10\LIBTIFF" /IC:\USERS\840\ANACONDA3\LIBRARY\INCLUDE /nologo /W3 /WX- /diagnostics:classic /O2 /Ob2 /D WIN32 /D _WINDOWS /D NDEBUG /D "CMAKE_INTDIR=\"Release\"" /D tiff_EXPORTS /D _WINDLL /D _MBCS /Gm- /MD /GS /fp:precise /Zc:wchar_t /Zc:forScope /Zc:inline /Fo"TIFF.DIR\RELEASE\\" /Fd"TIFF.DIR\RELEASE\VC141.PDB" /Gd /TC /FC C:\USERS\840\DESKTOP\TOOL\TIFF-4.0.10\LIBTIFF\TIF_COMPRESS.C
^C:\USERS\840\DESKTOP\TOOL\TIFF-4.0.10\LIBTIFF\TIF_DIR.C
/c /I"C:\USERS\840\DESKTOP\TOOL\TIFF-4.0.10\LIBTIFF" /IC:\USERS\840\ANACONDA3\LIBRARY\INCLUDE /nologo /W3 /WX- /diagnostics:classic /O2 /Ob2 /D WIN32 /D _WINDOWS /D NDEBUG /D "CMAKE_INTDIR=\"Release\"" /D tiff_EXPORTS /D _WINDLL /D _MBCS /Gm- /MD /GS /fp:precise /Zc:wchar_t /Zc:forScope /Zc:inline /Fo"TIFF.DIR\RELEASE\\" /Fd"TIFF.DIR\RELEASE\VC141.PDB" /Gd /TC /FC C:\USERS\840\DESKTOP\TOOL\TIFF-4.0.10\LIBTIFF\TIF_DIR.C
^C:\USERS\840\DESKTOP\TOOL\TIFF-4.0.10\LIBTIFF\TIF_DIRINFO.C
/c /I"C:\USERS\840\DESKTOP\TOOL\TIFF-4.0.10\LIBTIFF" /IC:\USERS\840\ANACONDA3\LIBRARY\INCLUDE /nologo /W3 /WX- /diagnostics:classic /O2 /Ob2 /D WIN32 /D _WINDOWS /D NDEBUG /D "CMAKE_INTDIR=\"Release\"" /D tiff_EXPORTS /D _WINDLL /D _MBCS /Gm- /MD /GS /fp:precise /Zc:wchar_t /Zc:forScope /Zc:inline /Fo"TIFF.DIR\RELEASE\\" /Fd"TIFF.DIR\RELEASE\VC141.PDB" /Gd /TC /FC C:\USERS\840\DESKTOP\TOOL\TIFF-4.0.10\LIBTIFF\TIF_DIRINFO.C
^C:\USERS\840\DESKTOP\TOOL\TIFF-4.0.10\LIBTIFF\TIF_DIRREAD.C
/c /I"C:\USERS\840\DESKTOP\TOOL\TIFF-4.0.10\LIBTIFF" /IC:\USERS\840\ANACONDA3\LIBRARY\INCLUDE /nologo /W3 /WX- /diagnostics:classic /O2 /Ob2 /D WIN32 /D _WINDOWS /D NDEBUG /D "CMAKE_INTDIR=\"Release\"" /D tiff_EXPORTS /D _WINDLL /D _MBCS /Gm- /MD /GS /fp:precise /Zc:wchar_t /Zc:forScope /Zc:inline /Fo"TIFF.DIR\RELEASE\\" /Fd"TIFF.DIR\RELEASE\VC141.PDB" /Gd /TC /FC C:\USERS\840\DESKTOP\TOOL\TIFF-4.0.10\LIBTIFF\TIF_DIRREAD.C
^C:\USERS\840\DESKTOP\TOOL\TIFF-4.0.10\LIBTIFF\TIF_DIRWRITE.C
/c /I"C:\USERS\840\DESKTOP\TOOL\TIFF-4.0.10\LIBTIFF" /IC:\USERS\840\ANACONDA3\LIBRARY\INCLUDE /nologo /W3 /WX- /diagnostics:classic /O2 /Ob2 /D WIN32 /D _WINDOWS /D NDEBUG /D "CMAKE_INTDIR=\"Release\"" /D tiff_EXPORTS /D _WINDLL /D _MBCS /Gm- /MD /GS /fp:precise /Zc:wchar_t /Zc:forScope /Zc:inline /Fo"TIFF.DIR\RELEASE\\" /Fd"TIFF.DIR\RELEASE\VC141.PDB" /Gd /TC /FC C:\USERS\840\DESKTOP\TOOL\TIFF-4.0.10\LIBTIFF\TIF_DIRWRITE.C
^C:\USERS\840\DESKTOP\TOOL\TIFF-4.0.10\LIBTIFF\TIF_DUMPMODE.C
/c /I"C:\USERS\840\DESKTOP\TOOL\TIFF-4.0.10\LIBTIFF" /IC:\USERS\840\ANACONDA3\LIBRARY\INCLUDE /nologo /W3 /WX- /diagnostics:classic /O2 /Ob2 /D WIN32 /D _WINDOWS /D NDEBUG /D "CMAKE_INTDIR=\"Release\"" /D tiff_EXPORTS /D _WINDLL /D _MBCS /Gm- /MD /GS /fp:precise /Zc:wchar_t /Zc:forScope /Zc:inline /Fo"TIFF.DIR\RELEASE\\" /Fd"TIFF.DIR\RELEASE\VC141.PDB" /Gd /TC /FC C:\USERS\840\DESKTOP\TOOL\TIFF-4.0.10\LIBTIFF\TIF_DUMPMODE.C
^C:\USERS\840\DESKTOP\TOOL\TIFF-4.0.10\LIBTIFF\TIF_ERROR.C
/c /I"C:\USERS\840\DESKTOP\TOOL\TIFF-4.0.10\LIBTIFF" /IC:\USERS\840\ANACONDA3\LIBRARY\INCLUDE /nologo /W3 /WX- /diagnostics:classic /O2 /Ob2 /D WIN32 /D _WINDOWS /D NDEBUG /D "CMAKE_INTDIR=\"Release\"" /D tiff_EXPORTS /D _WINDLL /D _MBCS /Gm- /MD /GS /fp:precise /Zc:wchar_t /Zc:forScope /Zc:inline /Fo"TIFF.DIR\RELEASE\\" /Fd"TIFF.DIR\RELEASE\VC141.PDB" /Gd /TC /FC C:\USERS\840\DESKTOP\TOOL\TIFF-4.0.10\LIBTIFF\TIF_ERROR.C
^C:\USERS\840\DESKTOP\TOOL\TIFF-4.0.10\LIBTIFF\TIF_EXTENSION.C
/c /I"C:\USERS\840\DESKTOP\TOOL\TIFF-4.0.10\LIBTIFF" /IC:\USERS\840\ANACONDA3\LIBRARY\INCLUDE /nologo /W3 /WX- /diagnostics:classic /O2 /Ob2 /D WIN32 /D _WINDOWS /D NDEBUG /D "CMAKE_INTDIR=\"Release\"" /D tiff_EXPORTS /D _WINDLL /D _MBCS /Gm- /MD /GS /fp:precise /Zc:wchar_t /Zc:forScope /Zc:inline /Fo"TIFF.DIR\RELEASE\\" /Fd"TIFF.DIR\RELEASE\VC141.PDB" /Gd /TC /FC C:\USERS\840\DESKTOP\TOOL\TIFF-4.0.10\LIBTIFF\TIF_EXTENSION.C
^C:\USERS\840\DESKTOP\TOOL\TIFF-4.0.10\LIBTIFF\TIF_FAX3.C
/c /I"C:\USERS\840\DESKTOP\TOOL\TIFF-4.0.10\LIBTIFF" /IC:\USERS\840\ANACONDA3\LIBRARY\INCLUDE /nologo /W3 /WX- /diagnostics:classic /O2 /Ob2 /D WIN32 /D _WINDOWS /D NDEBUG /D "CMAKE_INTDIR=\"Release\"" /D tiff_EXPORTS /D _WINDLL /D _MBCS /Gm- /MD /GS /fp:precise /Zc:wchar_t /Zc:forScope /Zc:inline /Fo"TIFF.DIR\RELEASE\\" /Fd"TIFF.DIR\RELEASE\VC141.PDB" /Gd /TC /FC C:\USERS\840\DESKTOP\TOOL\TIFF-4.0.10\LIBTIFF\TIF_FAX3.C
^C:\USERS\840\DESKTOP\TOOL\TIFF-4.0.10\LIBTIFF\TIF_FAX3SM.C
/c /I"C:\USERS\840\DESKTOP\TOOL\TIFF-4.0.10\LIBTIFF" /IC:\USERS\840\ANACONDA3\LIBRARY\INCLUDE /nologo /W3 /WX- /diagnostics:classic /O2 /Ob2 /D WIN32 /D _WINDOWS /D NDEBUG /D "CMAKE_INTDIR=\"Release\"" /D tiff_EXPORTS /D _WINDLL /D _MBCS /Gm- /MD /GS /fp:precise /Zc:wchar_t /Zc:forScope /Zc:inline /Fo"TIFF.DIR\RELEASE\\" /Fd"TIFF.DIR\RELEASE\VC141.PDB" /Gd /TC /FC C:\USERS\840\DESKTOP\TOOL\TIFF-4.0.10\LIBTIFF\TIF_FAX3SM.C
^C:\USERS\840\DESKTOP\TOOL\TIFF-4.0.10\LIBTIFF\TIF_FLUSH.C
/c /I"C:\USERS\840\DESKTOP\TOOL\TIFF-4.0.10\LIBTIFF" /IC:\USERS\840\ANACONDA3\LIBRARY\INCLUDE /nologo /W3 /WX- /diagnostics:classic /O2 /Ob2 /D WIN32 /D _WINDOWS /D NDEBUG /D "CMAKE_INTDIR=\"Release\"" /D tiff_EXPORTS /D _WINDLL /D _MBCS /Gm- /MD /GS /fp:precise /Zc:wchar_t /Zc:forScope /Zc:inline /Fo"TIFF.DIR\RELEASE\\" /Fd"TIFF.DIR\RELEASE\VC141.PDB" /Gd /TC /FC C:\USERS\840\DESKTOP\TOOL\TIFF-4.0.10\LIBTIFF\TIF_FLUSH.C
^C:\USERS\840\DESKTOP\TOOL\TIFF-4.0.10\LIBTIFF\TIF_GETIMAGE.C
/c /I"C:\USERS\840\DESKTOP\TOOL\TIFF-4.0.10\LIBTIFF" /IC:\USERS\840\ANACONDA3\LIBRARY\INCLUDE /nologo /W3 /WX- /diagnostics:classic /O2 /Ob2 /D WIN32 /D _WINDOWS /D NDEBUG /D "CMAKE_INTDIR=\"Release\"" /D tiff_EXPORTS /D _WINDLL /D _MBCS /Gm- /MD /GS /fp:precise /Zc:wchar_t /Zc:forScope /Zc:inline /Fo"TIFF.DIR\RELEASE\\" /Fd"TIFF.DIR\RELEASE\VC141.PDB" /Gd /TC /FC C:\USERS\840\DESKTOP\TOOL\TIFF-4.0.10\LIBTIFF\TIF_GETIMAGE.C
^C:\USERS\840\DESKTOP\TOOL\TIFF-4.0.10\LIBTIFF\TIF_JBIG.C
/c /I"C:\USERS\840\DESKTOP\TOOL\TIFF-4.0.10\LIBTIFF" /IC:\USERS\840\ANACONDA3\LIBRARY\INCLUDE /nologo /W3 /WX- /diagnostics:classic /O2 /Ob2 /D WIN32 /D _WINDOWS /D NDEBUG /D "CMAKE_INTDIR=\"Release\"" /D tiff_EXPORTS /D _WINDLL /D _MBCS /Gm- /MD /GS /fp:precise /Zc:wchar_t /Zc:forScope /Zc:inline /Fo"TIFF.DIR\RELEASE\\" /Fd"TIFF.DIR\RELEASE\VC141.PDB" /Gd /TC /FC C:\USERS\840\DESKTOP\TOOL\TIFF-4.0.10\LIBTIFF\TIF_JBIG.C
^C:\USERS\840\DESKTOP\TOOL\TIFF-4.0.10\LIBTIFF\TIF_JPEG.C
/c /I"C:\USERS\840\DESKTOP\TOOL\TIFF-4.0.10\LIBTIFF" /IC:\USERS\840\ANACONDA3\LIBRARY\INCLUDE /nologo /W3 /WX- /diagnostics:classic /O2 /Ob2 /D WIN32 /D _WINDOWS /D NDEBUG /D "CMAKE_INTDIR=\"Release\"" /D tiff_EXPORTS /D _WINDLL /D _MBCS /Gm- /MD /GS /fp:precise /Zc:wchar_t /Zc:forScope /Zc:inline /Fo"TIFF.DIR\RELEASE\\" /Fd"TIFF.DIR\RELEASE\VC141.PDB" /Gd /TC /FC C:\USERS\840\DESKTOP\TOOL\TIFF-4.0.10\LIBTIFF\TIF_JPEG.C
^C:\USERS\840\DESKTOP\TOOL\TIFF-4.0.10\LIBTIFF\TIF_JPEG_12.C
/c /I"C:\USERS\840\DESKTOP\TOOL\TIFF-4.0.10\LIBTIFF" /IC:\USERS\840\ANACONDA3\LIBRARY\INCLUDE /nologo /W3 /WX- /diagnostics:classic /O2 /Ob2 /D WIN32 /D _WINDOWS /D NDEBUG /D "CMAKE_INTDIR=\"Release\"" /D tiff_EXPORTS /D _WINDLL /D _MBCS /Gm- /MD /GS /fp:precise /Zc:wchar_t /Zc:forScope /Zc:inline /Fo"TIFF.DIR\RELEASE\\" /Fd"TIFF.DIR\RELEASE\VC141.PDB" /Gd /TC /FC C:\USERS\840\DESKTOP\TOOL\TIFF-4.0.10\LIBTIFF\TIF_JPEG_12.C
^C:\USERS\840\DESKTOP\TOOL\TIFF-4.0.10\LIBTIFF\TIF_LUV.C
/c /I"C:\USERS\840\DESKTOP\TOOL\TIFF-4.0.10\LIBTIFF" /IC:\USERS\840\ANACONDA3\LIBRARY\INCLUDE /nologo /W3 /WX- /diagnostics:classic /O2 /Ob2 /D WIN32 /D _WINDOWS /D NDEBUG /D "CMAKE_INTDIR=\"Release\"" /D tiff_EXPORTS /D _WINDLL /D _MBCS /Gm- /MD /GS /fp:precise /Zc:wchar_t /Zc:forScope /Zc:inline /Fo"TIFF.DIR\RELEASE\\" /Fd"TIFF.DIR\RELEASE\VC141.PDB" /Gd /TC /FC C:\USERS\840\DESKTOP\TOOL\TIFF-4.0.10\LIBTIFF\TIF_LUV.C
^C:\USERS\840\DESKTOP\TOOL\TIFF-4.0.10\LIBTIFF\TIF_LZMA.C
/c /I"C:\USERS\840\DESKTOP\TOOL\TIFF-4.0.10\LIBTIFF" /IC:\USERS\840\ANACONDA3\LIBRARY\INCLUDE /nologo /W3 /WX- /diagnostics:classic /O2 /Ob2 /D WIN32 /D _WINDOWS /D NDEBUG /D "CMAKE_INTDIR=\"Release\"" /D tiff_EXPORTS /D _WINDLL /D _MBCS /Gm- /MD /GS /fp:precise /Zc:wchar_t /Zc:forScope /Zc:inline /Fo"TIFF.DIR\RELEASE\\" /Fd"TIFF.DIR\RELEASE\VC141.PDB" /Gd /TC /FC C:\USERS\840\DESKTOP\TOOL\TIFF-4.0.10\LIBTIFF\TIF_LZMA.C
^C:\USERS\840\DESKTOP\TOOL\TIFF-4.0.10\LIBTIFF\TIF_LZW.C
/c /I"C:\USERS\840\DESKTOP\TOOL\TIFF-4.0.10\LIBTIFF" /IC:\USERS\840\ANACONDA3\LIBRARY\INCLUDE /nologo /W3 /WX- /diagnostics:classic /O2 /Ob2 /D WIN32 /D _WINDOWS /D NDEBUG /D "CMAKE_INTDIR=\"Release\"" /D tiff_EXPORTS /D _WINDLL /D _MBCS /Gm- /MD /GS /fp:precise /Zc:wchar_t /Zc:forScope /Zc:inline /Fo"TIFF.DIR\RELEASE\\" /Fd"TIFF.DIR\RELEASE\VC141.PDB" /Gd /TC /FC C:\USERS\840\DESKTOP\TOOL\TIFF-4.0.10\LIBTIFF\TIF_LZW.C
^C:\USERS\840\DESKTOP\TOOL\TIFF-4.0.10\LIBTIFF\TIF_NEXT.C
/c /I"C:\USERS\840\DESKTOP\TOOL\TIFF-4.0.10\LIBTIFF" /IC:\USERS\840\ANACONDA3\LIBRARY\INCLUDE /nologo /W3 /WX- /diagnostics:classic /O2 /Ob2 /D WIN32 /D _WINDOWS /D NDEBUG /D "CMAKE_INTDIR=\"Release\"" /D tiff_EXPORTS /D _WINDLL /D _MBCS /Gm- /MD /GS /fp:precise /Zc:wchar_t /Zc:forScope /Zc:inline /Fo"TIFF.DIR\RELEASE\\" /Fd"TIFF.DIR\RELEASE\VC141.PDB" /Gd /TC /FC C:\USERS\840\DESKTOP\TOOL\TIFF-4.0.10\LIBTIFF\TIF_NEXT.C
^C:\USERS\840\DESKTOP\TOOL\TIFF-4.0.10\LIBTIFF\TIF_OJPEG.C
/c /I"C:\USERS\840\DESKTOP\TOOL\TIFF-4.0.10\LIBTIFF" /IC:\USERS\840\ANACONDA3\LIBRARY\INCLUDE /nologo /W3 /WX- /diagnostics:classic /O2 /Ob2 /D WIN32 /D _WINDOWS /D NDEBUG /D "CMAKE_INTDIR=\"Release\"" /D tiff_EXPORTS /D _WINDLL /D _MBCS /Gm- /MD /GS /fp:precise /Zc:wchar_t /Zc:forScope /Zc:inline /Fo"TIFF.DIR\RELEASE\\" /Fd"TIFF.DIR\RELEASE\VC141.PDB" /Gd /TC /FC C:\USERS\840\DESKTOP\TOOL\TIFF-4.0.10\LIBTIFF\TIF_OJPEG.C
^C:\USERS\840\DESKTOP\TOOL\TIFF-4.0.10\LIBTIFF\TIF_OPEN.C
/c /I"C:\USERS\840\DESKTOP\TOOL\TIFF-4.0.10\LIBTIFF" /IC:\USERS\840\ANACONDA3\LIBRARY\INCLUDE /nologo /W3 /WX- /diagnostics:classic /O2 /Ob2 /D WIN32 /D _WINDOWS /D NDEBUG /D "CMAKE_INTDIR=\"Release\"" /D tiff_EXPORTS /D _WINDLL /D _MBCS /Gm- /MD /GS /fp:precise /Zc:wchar_t /Zc:forScope /Zc:inline /Fo"TIFF.DIR\RELEASE\\" /Fd"TIFF.DIR\RELEASE\VC141.PDB" /Gd /TC /FC C:\USERS\840\DESKTOP\TOOL\TIFF-4.0.10\LIBTIFF\TIF_OPEN.C
^C:\USERS\840\DESKTOP\TOOL\TIFF-4.0.10\LIBTIFF\TIF_PACKBITS.C
/c /I"C:\USERS\840\DESKTOP\TOOL\TIFF-4.0.10\LIBTIFF" /IC:\USERS\840\ANACONDA3\LIBRARY\INCLUDE /nologo /W3 /WX- /diagnostics:classic /O2 /Ob2 /D WIN32 /D _WINDOWS /D NDEBUG /D "CMAKE_INTDIR=\"Release\"" /D tiff_EXPORTS /D _WINDLL /D _MBCS /Gm- /MD /GS /fp:precise /Zc:wchar_t /Zc:forScope /Zc:inline /Fo"TIFF.DIR\RELEASE\\" /Fd"TIFF.DIR\RELEASE\VC141.PDB" /Gd /TC /FC C:\USERS\840\DESKTOP\TOOL\TIFF-4.0.10\LIBTIFF\TIF_PACKBITS.C
^C:\USERS\840\DESKTOP\TOOL\TIFF-4.0.10\LIBTIFF\TIF_PIXARLOG.C
/c /I"C:\USERS\840\DESKTOP\TOOL\TIFF-4.0.10\LIBTIFF" /IC:\USERS\840\ANACONDA3\LIBRARY\INCLUDE /nologo /W3 /WX- /diagnostics:classic /O2 /Ob2 /D WIN32 /D _WINDOWS /D NDEBUG /D "CMAKE_INTDIR=\"Release\"" /D tiff_EXPORTS /D _WINDLL /D _MBCS /Gm- /MD /GS /fp:precise /Zc:wchar_t /Zc:forScope /Zc:inline /Fo"TIFF.DIR\RELEASE\\" /Fd"TIFF.DIR\RELEASE\VC141.PDB" /Gd /TC /FC C:\USERS\840\DESKTOP\TOOL\TIFF-4.0.10\LIBTIFF\TIF_PIXARLOG.C
^C:\USERS\840\DESKTOP\TOOL\TIFF-4.0.10\LIBTIFF\TIF_PREDICT.C
/c /I"C:\USERS\840\DESKTOP\TOOL\TIFF-4.0.10\LIBTIFF" /IC:\USERS\840\ANACONDA3\LIBRARY\INCLUDE /nologo /W3 /WX- /diagnostics:classic /O2 /Ob2 /D WIN32 /D _WINDOWS /D NDEBUG /D "CMAKE_INTDIR=\"Release\"" /D tiff_EXPORTS /D _WINDLL /D _MBCS /Gm- /MD /GS /fp:precise /Zc:wchar_t /Zc:forScope /Zc:inline /Fo"TIFF.DIR\RELEASE\\" /Fd"TIFF.DIR\RELEASE\VC141.PDB" /Gd /TC /FC C:\USERS\840\DESKTOP\TOOL\TIFF-4.0.10\LIBTIFF\TIF_PREDICT.C
^C:\USERS\840\DESKTOP\TOOL\TIFF-4.0.10\LIBTIFF\TIF_PRINT.C
/c /I"C:\USERS\840\DESKTOP\TOOL\TIFF-4.0.10\LIBTIFF" /IC:\USERS\840\ANACONDA3\LIBRARY\INCLUDE /nologo /W3 /WX- /diagnostics:classic /O2 /Ob2 /D WIN32 /D _WINDOWS /D NDEBUG /D "CMAKE_INTDIR=\"Release\"" /D tiff_EXPORTS /D _WINDLL /D _MBCS /Gm- /MD /GS /fp:precise /Zc:wchar_t /Zc:forScope /Zc:inline /Fo"TIFF.DIR\RELEASE\\" /Fd"TIFF.DIR\RELEASE\VC141.PDB" /Gd /TC /FC C:\USERS\840\DESKTOP\TOOL\TIFF-4.0.10\LIBTIFF\TIF_PRINT.C
^C:\USERS\840\DESKTOP\TOOL\TIFF-4.0.10\LIBTIFF\TIF_READ.C
/c /I"C:\USERS\840\DESKTOP\TOOL\TIFF-4.0.10\LIBTIFF" /IC:\USERS\840\ANACONDA3\LIBRARY\INCLUDE /nologo /W3 /WX- /diagnostics:classic /O2 /Ob2 /D WIN32 /D _WINDOWS /D NDEBUG /D "CMAKE_INTDIR=\"Release\"" /D tiff_EXPORTS /D _WINDLL /D _MBCS /Gm- /MD /GS /fp:precise /Zc:wchar_t /Zc:forScope /Zc:inline /Fo"TIFF.DIR\RELEASE\\" /Fd"TIFF.DIR\RELEASE\VC141.PDB" /Gd /TC /FC C:\USERS\840\DESKTOP\TOOL\TIFF-4.0.10\LIBTIFF\TIF_READ.C
^C:\USERS\840\DESKTOP\TOOL\TIFF-4.0.10\LIBTIFF\TIF_STRIP.C
/c /I"C:\USERS\840\DESKTOP\TOOL\TIFF-4.0.10\LIBTIFF" /IC:\USERS\840\ANACONDA3\LIBRARY\INCLUDE /nologo /W3 /WX- /diagnostics:classic /O2 /Ob2 /D WIN32 /D _WINDOWS /D NDEBUG /D "CMAKE_INTDIR=\"Release\"" /D tiff_EXPORTS /D _WINDLL /D _MBCS /Gm- /MD /GS /fp:precise /Zc:wchar_t /Zc:forScope /Zc:inline /Fo"TIFF.DIR\RELEASE\\" /Fd"TIFF.DIR\RELEASE\VC141.PDB" /Gd /TC /FC C:\USERS\840\DESKTOP\TOOL\TIFF-4.0.10\LIBTIFF\TIF_STRIP.C
^C:\USERS\840\DESKTOP\TOOL\TIFF-4.0.10\LIBTIFF\TIF_SWAB.C
/c /I"C:\USERS\840\DESKTOP\TOOL\TIFF-4.0.10\LIBTIFF" /IC:\USERS\840\ANACONDA3\LIBRARY\INCLUDE /nologo /W3 /WX- /diagnostics:classic /O2 /Ob2 /D WIN32 /D _WINDOWS /D NDEBUG /D "CMAKE_INTDIR=\"Release\"" /D tiff_EXPORTS /D _WINDLL /D _MBCS /Gm- /MD /GS /fp:precise /Zc:wchar_t /Zc:forScope /Zc:inline /Fo"TIFF.DIR\RELEASE\\" /Fd"TIFF.DIR\RELEASE\VC141.PDB" /Gd /TC /FC C:\USERS\840\DESKTOP\TOOL\TIFF-4.0.10\LIBTIFF\TIF_SWAB.C
^C:\USERS\840\DESKTOP\TOOL\TIFF-4.0.10\LIBTIFF\TIF_THUNDER.C
/c /I"C:\USERS\840\DESKTOP\TOOL\TIFF-4.0.10\LIBTIFF" /IC:\USERS\840\ANACONDA3\LIBRARY\INCLUDE /nologo /W3 /WX- /diagnostics:classic /O2 /Ob2 /D WIN32 /D _WINDOWS /D NDEBUG /D "CMAKE_INTDIR=\"Release\"" /D tiff_EXPORTS /D _WINDLL /D _MBCS /Gm- /MD /GS /fp:precise /Zc:wchar_t /Zc:forScope /Zc:inline /Fo"TIFF.DIR\RELEASE\\" /Fd"TIFF.DIR\RELEASE\VC141.PDB" /Gd /TC /FC C:\USERS\840\DESKTOP\TOOL\TIFF-4.0.10\LIBTIFF\TIF_THUNDER.C
^C:\USERS\840\DESKTOP\TOOL\TIFF-4.0.10\LIBTIFF\TIF_TILE.C
/c /I"C:\USERS\840\DESKTOP\TOOL\TIFF-4.0.10\LIBTIFF" /IC:\USERS\840\ANACONDA3\LIBRARY\INCLUDE /nologo /W3 /WX- /diagnostics:classic /O2 /Ob2 /D WIN32 /D _WINDOWS /D NDEBUG /D "CMAKE_INTDIR=\"Release\"" /D tiff_EXPORTS /D _WINDLL /D _MBCS /Gm- /MD /GS /fp:precise /Zc:wchar_t /Zc:forScope /Zc:inline /Fo"TIFF.DIR\RELEASE\\" /Fd"TIFF.DIR\RELEASE\VC141.PDB" /Gd /TC /FC C:\USERS\840\DESKTOP\TOOL\TIFF-4.0.10\LIBTIFF\TIF_TILE.C
^C:\USERS\840\DESKTOP\TOOL\TIFF-4.0.10\LIBTIFF\TIF_VERSION.C
/c /I"C:\USERS\840\DESKTOP\TOOL\TIFF-4.0.10\LIBTIFF" /IC:\USERS\840\ANACONDA3\LIBRARY\INCLUDE /nologo /W3 /WX- /diagnostics:classic /O2 /Ob2 /D WIN32 /D _WINDOWS /D NDEBUG /D "CMAKE_INTDIR=\"Release\"" /D tiff_EXPORTS /D _WINDLL /D _MBCS /Gm- /MD /GS /fp:precise /Zc:wchar_t /Zc:forScope /Zc:inline /Fo"TIFF.DIR\RELEASE\\" /Fd"TIFF.DIR\RELEASE\VC141.PDB" /Gd /TC /FC C:\USERS\840\DESKTOP\TOOL\TIFF-4.0.10\LIBTIFF\TIF_VERSION.C
^C:\USERS\840\DESKTOP\TOOL\TIFF-4.0.10\LIBTIFF\TIF_WARNING.C
/c /I"C:\USERS\840\DESKTOP\TOOL\TIFF-4.0.10\LIBTIFF" /IC:\USERS\840\ANACONDA3\LIBRARY\INCLUDE /nologo /W3 /WX- /diagnostics:classic /O2 /Ob2 /D WIN32 /D _WINDOWS /D NDEBUG /D "CMAKE_INTDIR=\"Release\"" /D tiff_EXPORTS /D _WINDLL /D _MBCS /Gm- /MD /GS /fp:precise /Zc:wchar_t /Zc:forScope /Zc:inline /Fo"TIFF.DIR\RELEASE\\" /Fd"TIFF.DIR\RELEASE\VC141.PDB" /Gd /TC /FC C:\USERS\840\DESKTOP\TOOL\TIFF-4.0.10\LIBTIFF\TIF_WARNING.C
^C:\USERS\840\DESKTOP\TOOL\TIFF-4.0.10\LIBTIFF\TIF_WEBP.C
/c /I"C:\USERS\840\DESKTOP\TOOL\TIFF-4.0.10\LIBTIFF" /IC:\USERS\840\ANACONDA3\LIBRARY\INCLUDE /nologo /W3 /WX- /diagnostics:classic /O2 /Ob2 /D WIN32 /D _WINDOWS /D NDEBUG /D "CMAKE_INTDIR=\"Release\"" /D tiff_EXPORTS /D _WINDLL /D _MBCS /Gm- /MD /GS /fp:precise /Zc:wchar_t /Zc:forScope /Zc:inline /Fo"TIFF.DIR\RELEASE\\" /Fd"TIFF.DIR\RELEASE\VC141.PDB" /Gd /TC /FC C:\USERS\840\DESKTOP\TOOL\TIFF-4.0.10\LIBTIFF\TIF_WEBP.C
^C:\USERS\840\DESKTOP\TOOL\TIFF-4.0.10\LIBTIFF\TIF_WRITE.C
/c /I"C:\USERS\840\DESKTOP\TOOL\TIFF-4.0.10\LIBTIFF" /IC:\USERS\840\ANACONDA3\LIBRARY\INCLUDE /nologo /W3 /WX- /diagnostics:classic /O2 /Ob2 /D WIN32 /D _WINDOWS /D NDEBUG /D "CMAKE_INTDIR=\"Release\"" /D tiff_EXPORTS /D _WINDLL /D _MBCS /Gm- /MD /GS /fp:precise /Zc:wchar_t /Zc:forScope /Zc:inline /Fo"TIFF.DIR\RELEASE\\" /Fd"TIFF.DIR\RELEASE\VC141.PDB" /Gd /TC /FC C:\USERS\840\DESKTOP\TOOL\TIFF-4.0.10\LIBTIFF\TIF_WRITE.C
^C:\USERS\840\DESKTOP\TOOL\TIFF-4.0.10\LIBTIFF\TIF_ZIP.C
/c /I"C:\USERS\840\DESKTOP\TOOL\TIFF-4.0.10\LIBTIFF" /IC:\USERS\840\ANACONDA3\LIBRARY\INCLUDE /nologo /W3 /WX- /diagnostics:classic /O2 /Ob2 /D WIN32 /D _WINDOWS /D NDEBUG /D "CMAKE_INTDIR=\"Release\"" /D tiff_EXPORTS /D _WINDLL /D _MBCS /Gm- /MD /GS /fp:precise /Zc:wchar_t /Zc:forScope /Zc:inline /Fo"TIFF.DIR\RELEASE\\" /Fd"TIFF.DIR\RELEASE\VC141.PDB" /Gd /TC /FC C:\USERS\840\DESKTOP\TOOL\TIFF-4.0.10\LIBTIFF\TIF_ZIP.C
^C:\USERS\840\DESKTOP\TOOL\TIFF-4.0.10\LIBTIFF\TIF_ZSTD.C
/c /I"C:\USERS\840\DESKTOP\TOOL\TIFF-4.0.10\LIBTIFF" /IC:\USERS\840\ANACONDA3\LIBRARY\INCLUDE /nologo /W3 /WX- /diagnostics:classic /O2 /Ob2 /D WIN32 /D _WINDOWS /D NDEBUG /D "CMAKE_INTDIR=\"Release\"" /D tiff_EXPORTS /D _WINDLL /D _MBCS /Gm- /MD /GS /fp:precise /Zc:wchar_t /Zc:forScope /Zc:inline /Fo"TIFF.DIR\RELEASE\\" /Fd"TIFF.DIR\RELEASE\VC141.PDB" /Gd /TC /FC C:\USERS\840\DESKTOP\TOOL\TIFF-4.0.10\LIBTIFF\TIF_ZSTD.C
^C:\USERS\840\DESKTOP\TOOL\TIFF-4.0.10\LIBTIFF\TIF_UNIX.C
/c /I"C:\USERS\840\DESKTOP\TOOL\TIFF-4.0.10\LIBTIFF" /IC:\USERS\840\ANACONDA3\LIBRARY\INCLUDE /nologo /W3 /WX- /diagnostics:classic /O2 /Ob2 /D WIN32 /D _WINDOWS /D NDEBUG /D "CMAKE_INTDIR=\"Release\"" /D tiff_EXPORTS /D _WINDLL /D _MBCS /Gm- /MD /GS /fp:precise /Zc:wchar_t /Zc:forScope /Zc:inline /Fo"TIFF.DIR\RELEASE\\" /Fd"TIFF.DIR\RELEASE\VC141.PDB" /Gd /TC /FC C:\USERS\840\DESKTOP\TOOL\TIFF-4.0.10\LIBTIFF\TIF_UNIX.C
^C:\USERS\840\DESKTOP\TOOL\TIFF-4.0.10\PORT\DUMMY.C
/c /I"C:\USERS\840\DESKTOP\TOOL\TIFF-4.0.10\LIBTIFF" /IC:\USERS\840\ANACONDA3\LIBRARY\INCLUDE /nologo /W3 /WX- /diagnostics:classic /O2 /Ob2 /D WIN32 /D _WINDOWS /D NDEBUG /D "CMAKE_INTDIR=\"Release\"" /D tiff_EXPORTS /D _WINDLL /D _MBCS /Gm- /MD /GS /fp:precise /Zc:wchar_t /Zc:forScope /Zc:inline /Fo"TIFF.DIR\RELEASE\\" /Fd"TIFF.DIR\RELEASE\VC141.PDB" /Gd /TC /FC C:\USERS\840\DESKTOP\TOOL\TIFF-4.0.10\PORT\DUMMY.C
^C:\USERS\840\DESKTOP\TOOL\TIFF-4.0.10\PORT\GETOPT.C
/c /I"C:\USERS\840\DESKTOP\TOOL\TIFF-4.0.10\LIBTIFF" /IC:\USERS\840\ANACONDA3\LIBRARY\INCLUDE /nologo /W3 /WX- /diagnostics:classic /O2 /Ob2 /D WIN32 /D _WINDOWS /D NDEBUG /D "CMAKE_INTDIR=\"Release\"" /D tiff_EXPORTS /D _WINDLL /D _MBCS /Gm- /MD /GS /fp:precise /Zc:wchar_t /Zc:forScope /Zc:inline /Fo"TIFF.DIR\RELEASE\\" /Fd"TIFF.DIR\RELEASE\VC141.PDB" /Gd /TC /FC C:\USERS\840\DESKTOP\TOOL\TIFF-4.0.10\PORT\GETOPT.C
^C:\USERS\840\DESKTOP\TOOL\TIFF-4.0.10\PORT\STRCASECMP.C
/c /I"C:\USERS\840\DESKTOP\TOOL\TIFF-4.0.10\LIBTIFF" /IC:\USERS\840\ANACONDA3\LIBRARY\INCLUDE /nologo /W3 /WX- /diagnostics:classic /O2 /Ob2 /D WIN32 /D _WINDOWS /D NDEBUG /D "CMAKE_INTDIR=\"Release\"" /D tiff_EXPORTS /D _WINDLL /D _MBCS /Gm- /MD /GS /fp:precise /Zc:wchar_t /Zc:forScope /Zc:inline /Fo"TIFF.DIR\RELEASE\\" /Fd"TIFF.DIR\RELEASE\VC141.PDB" /Gd /TC /FC C:\USERS\840\DESKTOP\TOOL\TIFF-4.0.10\PORT\STRCASECMP.C
